<?xml version="1.0" encoding="UTF-8"?>
<testsuite xmlns:xsi="http://www.w3.org/2001/XMLSchema-instance" xsi:noNamespaceSchemaLocation="https://maven.apache.org/surefire/maven-surefire-plugin/xsd/surefire-test-report-3.0.xsd" version="3.0" name="hu.braininghub.neptun.service.NeptunTest" time="0.877" tests="2" errors="0" skipped="0" failures="0">
  <properties>
    <property name="sun.desktop" value="gnome"/>
    <property name="awt.toolkit" value="sun.awt.X11.XToolkit"/>
    <property name="file.encoding.pkg" value="sun.io"/>
    <property name="java.specification.version" value="1.8"/>
    <property name="sun.cpu.isalist" value=""/>
    <property name="sun.jnu.encoding" value="UTF-8"/>
    <property name="java.class.path" value="/home/momate/Dokumentumok/BrainingHub/Bh11/2020.02.26/Neptun/target/test-classes:/home/momate/Dokumentumok/BrainingHub/Bh11/2020.02.26/Neptun/target/classes:/home/momate/.m2/repository/org/eclipse/persistence/org.eclipse.persistence.core/2.5.2/org.eclipse.persistence.core-2.5.2.jar:/home/momate/.m2/repository/org/eclipse/persistence/org.eclipse.persistence.asm/2.5.2/org.eclipse.persistence.asm-2.5.2.jar:/home/momate/.m2/repository/org/eclipse/persistence/org.eclipse.persistence.antlr/2.5.2/org.eclipse.persistence.antlr-2.5.2.jar:/home/momate/.m2/repository/org/eclipse/persistence/org.eclipse.persistence.jpa/2.5.2/org.eclipse.persistence.jpa-2.5.2.jar:/home/momate/.m2/repository/org/eclipse/persistence/org.eclipse.persistence.jpa.jpql/2.5.2/org.eclipse.persistence.jpa.jpql-2.5.2.jar:/home/momate/.m2/repository/org/eclipse/persistence/javax.persistence/2.1.0/javax.persistence-2.1.0.jar:/home/momate/.m2/repository/org/eclipse/persistence/org.eclipse.persistence.jpa.modelgen.processor/2.5.2/org.eclipse.persistence.jpa.modelgen.processor-2.5.2.jar:/home/momate/.m2/repository/javax/javaee-web-api/7.0/javaee-web-api-7.0.jar:/home/momate/.m2/repository/org/apache/commons/commons-lang3/3.5/commons-lang3-3.5.jar:/home/momate/.m2/repository/org/junit/jupiter/junit-jupiter-api/5.6.0/junit-jupiter-api-5.6.0.jar:/home/momate/.m2/repository/org/apiguardian/apiguardian-api/1.1.0/apiguardian-api-1.1.0.jar:/home/momate/.m2/repository/org/opentest4j/opentest4j/1.2.0/opentest4j-1.2.0.jar:/home/momate/.m2/repository/org/junit/platform/junit-platform-commons/1.6.0/junit-platform-commons-1.6.0.jar:/home/momate/.m2/repository/org/mockito/mockito-junit-jupiter/3.3.0/mockito-junit-jupiter-3.3.0.jar:/home/momate/.m2/repository/org/junit/jupiter/junit-jupiter-engine/5.6.0/junit-jupiter-engine-5.6.0.jar:/home/momate/.m2/repository/org/junit/platform/junit-platform-engine/1.6.0/junit-platform-engine-1.6.0.jar:/home/momate/.m2/repository/org/mockito/mockito-core/3.3.0/mockito-core-3.3.0.jar:/home/momate/.m2/repository/net/bytebuddy/byte-buddy/1.10.5/byte-buddy-1.10.5.jar:/home/momate/.m2/repository/net/bytebuddy/byte-buddy-agent/1.10.5/byte-buddy-agent-1.10.5.jar:/home/momate/.m2/repository/org/objenesis/objenesis/2.6/objenesis-2.6.jar:/home/momate/.m2/repository/org/seleniumhq/selenium/selenium-java/2.44.0/selenium-java-2.44.0.jar:/home/momate/.m2/repository/org/seleniumhq/selenium/selenium-chrome-driver/2.44.0/selenium-chrome-driver-2.44.0.jar:/home/momate/.m2/repository/org/seleniumhq/selenium/selenium-remote-driver/2.44.0/selenium-remote-driver-2.44.0.jar:/home/momate/.m2/repository/cglib/cglib-nodep/2.1_3/cglib-nodep-2.1_3.jar:/home/momate/.m2/repository/com/google/code/gson/gson/2.3/gson-2.3.jar:/home/momate/.m2/repository/org/seleniumhq/selenium/selenium-api/2.44.0/selenium-api-2.44.0.jar:/home/momate/.m2/repository/org/seleniumhq/selenium/selenium-htmlunit-driver/2.44.0/selenium-htmlunit-driver-2.44.0.jar:/home/momate/.m2/repository/net/sourceforge/htmlunit/htmlunit/2.15/htmlunit-2.15.jar:/home/momate/.m2/repository/xalan/xalan/2.7.1/xalan-2.7.1.jar:/home/momate/.m2/repository/xalan/serializer/2.7.1/serializer-2.7.1.jar:/home/momate/.m2/repository/commons-collections/commons-collections/3.2.1/commons-collections-3.2.1.jar:/home/momate/.m2/repository/org/apache/httpcomponents/httpmime/4.3.3/httpmime-4.3.3.jar:/home/momate/.m2/repository/commons-codec/commons-codec/1.9/commons-codec-1.9.jar:/home/momate/.m2/repository/net/sourceforge/htmlunit/htmlunit-core-js/2.15/htmlunit-core-js-2.15.jar:/home/momate/.m2/repository/xerces/xercesImpl/2.11.0/xercesImpl-2.11.0.jar:/home/momate/.m2/repository/xml-apis/xml-apis/1.4.01/xml-apis-1.4.01.jar:/home/momate/.m2/repository/net/sourceforge/nekohtml/nekohtml/1.9.21/nekohtml-1.9.21.jar:/home/momate/.m2/repository/net/sourceforge/cssparser/cssparser/0.9.14/cssparser-0.9.14.jar:/home/momate/.m2/repository/org/w3c/css/sac/1.3/sac-1.3.jar:/home/momate/.m2/repository/commons-logging/commons-logging/1.1.3/commons-logging-1.1.3.jar:/home/momate/.m2/repository/org/eclipse/jetty/jetty-websocket/8.1.15.v20140411/jetty-websocket-8.1.15.v20140411.jar:/home/momate/.m2/repository/org/eclipse/jetty/jetty-util/8.1.15.v20140411/jetty-util-8.1.15.v20140411.jar:/home/momate/.m2/repository/org/eclipse/jetty/jetty-io/8.1.15.v20140411/jetty-io-8.1.15.v20140411.jar:/home/momate/.m2/repository/org/eclipse/jetty/jetty-http/8.1.15.v20140411/jetty-http-8.1.15.v20140411.jar:/home/momate/.m2/repository/org/apache/httpcomponents/httpclient/4.3.4/httpclient-4.3.4.jar:/home/momate/.m2/repository/org/apache/httpcomponents/httpcore/4.3.2/httpcore-4.3.2.jar:/home/momate/.m2/repository/org/seleniumhq/selenium/selenium-firefox-driver/2.44.0/selenium-firefox-driver-2.44.0.jar:/home/momate/.m2/repository/commons-io/commons-io/2.4/commons-io-2.4.jar:/home/momate/.m2/repository/org/seleniumhq/selenium/selenium-ie-driver/2.44.0/selenium-ie-driver-2.44.0.jar:/home/momate/.m2/repository/net/java/dev/jna/jna/3.4.0/jna-3.4.0.jar:/home/momate/.m2/repository/net/java/dev/jna/platform/3.4.0/platform-3.4.0.jar:/home/momate/.m2/repository/org/seleniumhq/selenium/selenium-safari-driver/2.44.0/selenium-safari-driver-2.44.0.jar:/home/momate/.m2/repository/org/seleniumhq/selenium/selenium-support/2.44.0/selenium-support-2.44.0.jar:/home/momate/.m2/repository/org/webbitserver/webbit/0.4.14/webbit-0.4.14.jar:/home/momate/.m2/repository/io/netty/netty/3.5.2.Final/netty-3.5.2.Final.jar:/home/momate/.m2/repository/com/opera/operadriver/1.5/operadriver-1.5.jar:/home/momate/.m2/repository/com/opera/operalaunchers/1.1/operalaunchers-1.1.jar:/home/momate/.m2/repository/com/google/protobuf/protobuf-java/2.4.1/protobuf-java-2.4.1.jar:/home/momate/.m2/repository/com/google/guava/guava/14.0/guava-14.0.jar:/home/momate/.m2/repository/commons-jxpath/commons-jxpath/1.3/commons-jxpath-1.3.jar:/home/momate/.m2/repository/org/apache/commons/commons-exec/1.1/commons-exec-1.1.jar:/home/momate/.m2/repository/org/ini4j/ini4j/0.5.2/ini4j-0.5.2.jar:/home/momate/.m2/repository/junit/junit/4.11/junit-4.11.jar:/home/momate/.m2/repository/org/hamcrest/hamcrest-core/1.3/hamcrest-core-1.3.jar:/home/momate/.m2/repository/jstl/jstl/1.2/jstl-1.2.jar:"/>
    <property name="java.vm.vendor" value="Oracle Corporation"/>
    <property name="sun.arch.data.model" value="64"/>
    <property name="java.vendor.url" value="http://java.oracle.com/"/>
    <property name="user.timezone" value=""/>
    <property name="java.vm.specification.version" value="1.8"/>
    <property name="os.name" value="Linux"/>
    <property name="sun.java.launcher" value="SUN_STANDARD"/>
    <property name="user.country" value="HU"/>
    <property name="sun.boot.library.path" value="/home/momate/Letöltések/Java/jdk-8u231-linux-x64/jdk1.8.0_231/jre/lib/amd64"/>
    <property name="sun.java.command" value="/home/momate/Dokumentumok/BrainingHub/Bh11/2020.02.26/Neptun/target/surefire/surefirebooter3172131310893886165.jar /home/momate/Dokumentumok/BrainingHub/Bh11/2020.02.26/Neptun/target/surefire 2020-03-07T21-07-29_106-jvmRun1 surefire1741771709980111763tmp surefire_07684779336197230313tmp"/>
    <property name="surefire.test.class.path" value="/home/momate/Dokumentumok/BrainingHub/Bh11/2020.02.26/Neptun/target/test-classes:/home/momate/Dokumentumok/BrainingHub/Bh11/2020.02.26/Neptun/target/classes:/home/momate/.m2/repository/org/eclipse/persistence/org.eclipse.persistence.core/2.5.2/org.eclipse.persistence.core-2.5.2.jar:/home/momate/.m2/repository/org/eclipse/persistence/org.eclipse.persistence.asm/2.5.2/org.eclipse.persistence.asm-2.5.2.jar:/home/momate/.m2/repository/org/eclipse/persistence/org.eclipse.persistence.antlr/2.5.2/org.eclipse.persistence.antlr-2.5.2.jar:/home/momate/.m2/repository/org/eclipse/persistence/org.eclipse.persistence.jpa/2.5.2/org.eclipse.persistence.jpa-2.5.2.jar:/home/momate/.m2/repository/org/eclipse/persistence/org.eclipse.persistence.jpa.jpql/2.5.2/org.eclipse.persistence.jpa.jpql-2.5.2.jar:/home/momate/.m2/repository/org/eclipse/persistence/javax.persistence/2.1.0/javax.persistence-2.1.0.jar:/home/momate/.m2/repository/org/eclipse/persistence/org.eclipse.persistence.jpa.modelgen.processor/2.5.2/org.eclipse.persistence.jpa.modelgen.processor-2.5.2.jar:/home/momate/.m2/repository/javax/javaee-web-api/7.0/javaee-web-api-7.0.jar:/home/momate/.m2/repository/org/apache/commons/commons-lang3/3.5/commons-lang3-3.5.jar:/home/momate/.m2/repository/org/junit/jupiter/junit-jupiter-api/5.6.0/junit-jupiter-api-5.6.0.jar:/home/momate/.m2/repository/org/apiguardian/apiguardian-api/1.1.0/apiguardian-api-1.1.0.jar:/home/momate/.m2/repository/org/opentest4j/opentest4j/1.2.0/opentest4j-1.2.0.jar:/home/momate/.m2/repository/org/junit/platform/junit-platform-commons/1.6.0/junit-platform-commons-1.6.0.jar:/home/momate/.m2/repository/org/mockito/mockito-junit-jupiter/3.3.0/mockito-junit-jupiter-3.3.0.jar:/home/momate/.m2/repository/org/junit/jupiter/junit-jupiter-engine/5.6.0/junit-jupiter-engine-5.6.0.jar:/home/momate/.m2/repository/org/junit/platform/junit-platform-engine/1.6.0/junit-platform-engine-1.6.0.jar:/home/momate/.m2/repository/org/mockito/mockito-core/3.3.0/mockito-core-3.3.0.jar:/home/momate/.m2/repository/net/bytebuddy/byte-buddy/1.10.5/byte-buddy-1.10.5.jar:/home/momate/.m2/repository/net/bytebuddy/byte-buddy-agent/1.10.5/byte-buddy-agent-1.10.5.jar:/home/momate/.m2/repository/org/objenesis/objenesis/2.6/objenesis-2.6.jar:/home/momate/.m2/repository/org/seleniumhq/selenium/selenium-java/2.44.0/selenium-java-2.44.0.jar:/home/momate/.m2/repository/org/seleniumhq/selenium/selenium-chrome-driver/2.44.0/selenium-chrome-driver-2.44.0.jar:/home/momate/.m2/repository/org/seleniumhq/selenium/selenium-remote-driver/2.44.0/selenium-remote-driver-2.44.0.jar:/home/momate/.m2/repository/cglib/cglib-nodep/2.1_3/cglib-nodep-2.1_3.jar:/home/momate/.m2/repository/com/google/code/gson/gson/2.3/gson-2.3.jar:/home/momate/.m2/repository/org/seleniumhq/selenium/selenium-api/2.44.0/selenium-api-2.44.0.jar:/home/momate/.m2/repository/org/seleniumhq/selenium/selenium-htmlunit-driver/2.44.0/selenium-htmlunit-driver-2.44.0.jar:/home/momate/.m2/repository/net/sourceforge/htmlunit/htmlunit/2.15/htmlunit-2.15.jar:/home/momate/.m2/repository/xalan/xalan/2.7.1/xalan-2.7.1.jar:/home/momate/.m2/repository/xalan/serializer/2.7.1/serializer-2.7.1.jar:/home/momate/.m2/repository/commons-collections/commons-collections/3.2.1/commons-collections-3.2.1.jar:/home/momate/.m2/repository/org/apache/httpcomponents/httpmime/4.3.3/httpmime-4.3.3.jar:/home/momate/.m2/repository/commons-codec/commons-codec/1.9/commons-codec-1.9.jar:/home/momate/.m2/repository/net/sourceforge/htmlunit/htmlunit-core-js/2.15/htmlunit-core-js-2.15.jar:/home/momate/.m2/repository/xerces/xercesImpl/2.11.0/xercesImpl-2.11.0.jar:/home/momate/.m2/repository/xml-apis/xml-apis/1.4.01/xml-apis-1.4.01.jar:/home/momate/.m2/repository/net/sourceforge/nekohtml/nekohtml/1.9.21/nekohtml-1.9.21.jar:/home/momate/.m2/repository/net/sourceforge/cssparser/cssparser/0.9.14/cssparser-0.9.14.jar:/home/momate/.m2/repository/org/w3c/css/sac/1.3/sac-1.3.jar:/home/momate/.m2/repository/commons-logging/commons-logging/1.1.3/commons-logging-1.1.3.jar:/home/momate/.m2/repository/org/eclipse/jetty/jetty-websocket/8.1.15.v20140411/jetty-websocket-8.1.15.v20140411.jar:/home/momate/.m2/repository/org/eclipse/jetty/jetty-util/8.1.15.v20140411/jetty-util-8.1.15.v20140411.jar:/home/momate/.m2/repository/org/eclipse/jetty/jetty-io/8.1.15.v20140411/jetty-io-8.1.15.v20140411.jar:/home/momate/.m2/repository/org/eclipse/jetty/jetty-http/8.1.15.v20140411/jetty-http-8.1.15.v20140411.jar:/home/momate/.m2/repository/org/apache/httpcomponents/httpclient/4.3.4/httpclient-4.3.4.jar:/home/momate/.m2/repository/org/apache/httpcomponents/httpcore/4.3.2/httpcore-4.3.2.jar:/home/momate/.m2/repository/org/seleniumhq/selenium/selenium-firefox-driver/2.44.0/selenium-firefox-driver-2.44.0.jar:/home/momate/.m2/repository/commons-io/commons-io/2.4/commons-io-2.4.jar:/home/momate/.m2/repository/org/seleniumhq/selenium/selenium-ie-driver/2.44.0/selenium-ie-driver-2.44.0.jar:/home/momate/.m2/repository/net/java/dev/jna/jna/3.4.0/jna-3.4.0.jar:/home/momate/.m2/repository/net/java/dev/jna/platform/3.4.0/platform-3.4.0.jar:/home/momate/.m2/repository/org/seleniumhq/selenium/selenium-safari-driver/2.44.0/selenium-safari-driver-2.44.0.jar:/home/momate/.m2/repository/org/seleniumhq/selenium/selenium-support/2.44.0/selenium-support-2.44.0.jar:/home/momate/.m2/repository/org/webbitserver/webbit/0.4.14/webbit-0.4.14.jar:/home/momate/.m2/repository/io/netty/netty/3.5.2.Final/netty-3.5.2.Final.jar:/home/momate/.m2/repository/com/opera/operadriver/1.5/operadriver-1.5.jar:/home/momate/.m2/repository/com/opera/operalaunchers/1.1/operalaunchers-1.1.jar:/home/momate/.m2/repository/com/google/protobuf/protobuf-java/2.4.1/protobuf-java-2.4.1.jar:/home/momate/.m2/repository/com/google/guava/guava/14.0/guava-14.0.jar:/home/momate/.m2/repository/commons-jxpath/commons-jxpath/1.3/commons-jxpath-1.3.jar:/home/momate/.m2/repository/org/apache/commons/commons-exec/1.1/commons-exec-1.1.jar:/home/momate/.m2/repository/org/ini4j/ini4j/0.5.2/ini4j-0.5.2.jar:/home/momate/.m2/repository/junit/junit/4.11/junit-4.11.jar:/home/momate/.m2/repository/org/hamcrest/hamcrest-core/1.3/hamcrest-core-1.3.jar:/home/momate/.m2/repository/jstl/jstl/1.2/jstl-1.2.jar:"/>
    <property name="sun.cpu.endian" value="little"/>
    <property name="user.home" value="/home/momate"/>
    <property name="user.language" value="hu"/>
    <property name="java.specification.vendor" value="Oracle Corporation"/>
    <property name="java.home" value="/home/momate/Letöltések/Java/jdk-8u231-linux-x64/jdk1.8.0_231/jre"/>
    <property name="basedir" value="/home/momate/Dokumentumok/BrainingHub/Bh11/2020.02.26/Neptun"/>
    <property name="file.separator" value="/"/>
    <property name="line.separator" value="&#10;"/>
    <property name="java.vm.specification.vendor" value="Oracle Corporation"/>
    <property name="java.specification.name" value="Java Platform API Specification"/>
    <property name="java.awt.graphicsenv" value="sun.awt.X11GraphicsEnvironment"/>
    <property name="surefire.real.class.path" value="/home/momate/Dokumentumok/BrainingHub/Bh11/2020.02.26/Neptun/target/surefire/surefirebooter3172131310893886165.jar"/>
    <property name="sun.boot.class.path" value="/home/momate/Letöltések/Java/jdk-8u231-linux-x64/jdk1.8.0_231/jre/lib/resources.jar:/home/momate/Letöltések/Java/jdk-8u231-linux-x64/jdk1.8.0_231/jre/lib/rt.jar:/home/momate/Letöltések/Java/jdk-8u231-linux-x64/jdk1.8.0_231/jre/lib/sunrsasign.jar:/home/momate/Letöltések/Java/jdk-8u231-linux-x64/jdk1.8.0_231/jre/lib/jsse.jar:/home/momate/Letöltések/Java/jdk-8u231-linux-x64/jdk1.8.0_231/jre/lib/jce.jar:/home/momate/Letöltések/Java/jdk-8u231-linux-x64/jdk1.8.0_231/jre/lib/charsets.jar:/home/momate/Letöltések/Java/jdk-8u231-linux-x64/jdk1.8.0_231/jre/lib/jfr.jar:/home/momate/Letöltések/Java/jdk-8u231-linux-x64/jdk1.8.0_231/jre/classes"/>
    <property name="sun.management.compiler" value="HotSpot 64-Bit Tiered Compilers"/>
    <property name="java.runtime.version" value="1.8.0_231-b11"/>
    <property name="user.name" value="momate"/>
    <property name="path.separator" value=":"/>
    <property name="os.version" value="5.3.0-40-generic"/>
    <property name="java.endorsed.dirs" value="/home/momate/Letöltések/Java/jdk-8u231-linux-x64/jdk1.8.0_231/jre/lib/endorsed"/>
    <property name="java.runtime.name" value="Java(TM) SE Runtime Environment"/>
    <property name="file.encoding" value="UTF-8"/>
    <property name="java.vm.name" value="Java HotSpot(TM) 64-Bit Server VM"/>
    <property name="maven.ext.class.path" value="/snap/netbeans/24/netbeans/java/maven-nblib/netbeans-eventspy.jar"/>
    <property name="localRepository" value="/home/momate/.m2/repository"/>
    <property name="java.vendor.url.bug" value="http://bugreport.sun.com/bugreport/"/>
    <property name="java.io.tmpdir" value="/tmp"/>
    <property name="java.version" value="1.8.0_231"/>
    <property name="user.dir" value="/home/momate/Dokumentumok/BrainingHub/Bh11/2020.02.26/Neptun"/>
    <property name="os.arch" value="amd64"/>
    <property name="java.vm.specification.name" value="Java Virtual Machine Specification"/>
    <property name="java.awt.printerjob" value="sun.print.PSPrinterJob"/>
    <property name="sun.os.patch.level" value="unknown"/>
    <property name="java.library.path" value="/usr/java/packages/lib/amd64:/usr/lib64:/lib64:/lib:/usr/lib"/>
    <property name="java.vm.info" value="mixed mode"/>
    <property name="java.vendor" value="Oracle Corporation"/>
    <property name="java.vm.version" value="25.231-b11"/>
    <property name="java.ext.dirs" value="/home/momate/Letöltések/Java/jdk-8u231-linux-x64/jdk1.8.0_231/jre/lib/ext:/usr/java/packages/lib/ext"/>
    <property name="sun.io.unicode.encoding" value="UnicodeLittle"/>
    <property name="java.class.version" value="52.0"/>
  </properties>
  <testcase name="testGetStudentsWith1Student" classname="hu.braininghub.neptun.service.NeptunTest" time="0.84"/>
  <testcase name="testGetStudentsWithEmptyResult" classname="hu.braininghub.neptun.service.NeptunTest" time="0.007"/>
</testsuite>