/home/momate/Dokumentumok/BrainingHub/Bh11/2020.01.31/Employee/src/main/java/hu/braininghub/employee/service/EmployeeService.java
/home/momate/Dokumentumok/BrainingHub/Bh11/2020.01.31/Employee/src/main/java/hu/braininghub/employee/servlet/EmployeeServlet.java
/home/momate/Dokumentumok/BrainingHub/Bh11/2020.01.31/Employee/src/main/java/hu/braininghub/employee/servlet/SearchEmployee.java
/home/momate/Dokumentumok/BrainingHub/Bh11/2020.01.31/Employee/src/main/java/hu/braininghub/employee/repository/EmployeeDAO.java
